Exploring transcriptome-wide changes using PCA
…
# create a "tibble" manually with 
# a variable indicating the PC number
# and a variable with the variances
pc_eigenvalues <- tibble(PC = factor(1:length(pc_eigenvalues)), 
                         variance = pc_eigenvalues) %>% 
  # add a new column with the percent variance
  mutate(pct = variance/sum(variance)*100) %>% 
  # add another column with the cumulative variance explained
  mutate(pct_cum = cumsum(pct))

# print the result
pc_eigenvalues

## # A tibble: 36 x 4
##    PC    variance   pct pct_cum
##    <fct>    <dbl> <dbl>   <dbl>
##  1 1        351.  38.8     38.8
##  2 2        147.  16.3     55.2
##  3 3         76.7  8.50    63.7
##  4 4         51.2  5.67    69.3
##  5 5         48.8  5.41    74.7
##  6 6         29.5  3.26    78.0
##  7 7         27.0  2.99    81.0
##  8 8         16.8  1.86    82.8
##  9 9         14.3  1.59    84.4
## 10 10        13.5  1.49    85.9
## #  with 26 more rows
…
Next, we turn to visualising our samples on the new PC coordinates. Again, we had already extracted this from our prcomp object in the previous exercise:

# The PC scores are stored in the "x" value of the prcomp object
pc_scores <- sample_pca$x

This object is of class matrix, so we need to first convert it to a data.frame/tibble for ggplot2.

pc_scores <- pc_scores %>% 
  # convert to a tibble retaining the sample names as a new column
  as_tibble(rownames = "sample")

# print the result
pc_scores

## # A tibble: 36 x 37
##    sample    PC1    PC2     PC3     PC4    PC5     PC6    PC7    PC8    PC9
##    <chr>   <dbl>  <dbl>   <dbl>   <dbl>  <dbl>   <dbl>  <dbl>  <dbl>  <dbl>
##  1 wt_0_ -21.5    5.53   0.130  -8.28  10.2    -4.45   2.93  -0.121  0.299
##  2 wt_0_ -20.9    2.80 -13.3    -0.106  7.52    0.392 -0.137 -5.90   0.900
##  3 wt_0_ -20.8    1.83 -13.5     0.402  8.98    0.263  0.170 -3.55   1.13 
##  4 wt_15  12.2   27.9   11.1    -2.04   5.00   20.0   14.2   -3.50  -7.37 
##  5 wt_15  11.0   20.2    5.92   -1.18  -3.16    0.975 -6.95  -2.88   5.86 
##  6 wt_15  14.5   28.7   -4.50   26.1   -2.23  -16.8   10.5    0.393 -1.86 
##  7 wt_30  33.1   -6.93   2.18  -10.4    3.76   -4.28   8.81   4.05   5.50 
##  8 wt_30  35.7   -6.54 -14.8     0.719 -0.640   4.31   0.349 -3.51   2.83 
##  9 wt_30  33.2  -13.0  -16.9     1.83   2.43    3.47   1.76  -2.14   5.72 
## 10 wt_60  -1.87 -11.9   10.3     9.11   2.64    4.40   1.37  -2.82   5.68 
## #  with 26 more rows, and 27 more variables: PC10 <dbl>, PC11 <dbl>,
## #   PC12 <dbl>, PC13 <dbl>, PC14 <dbl>, PC15 <dbl>, PC16 <dbl>, PC17 <dbl>,
## #   PC18 <dbl>, PC19 <dbl>, PC20 <dbl>, PC21 <dbl>, PC22 <dbl>, PC23 <dbl>,
## #   PC24 <dbl>, PC25 <dbl>, PC26 <dbl>, PC27 <dbl>, PC28 <dbl>, PC29 <dbl>,
## #   PC30 <dbl>, PC31 <dbl>, PC32 <dbl>, PC33 <dbl>, PC34 <dbl>, PC35 <dbl>,
## #   PC36 <dbl>
…
Finally, to be able to interpret our PC-axis we could ask the question of which genes have the most influence on each PC axis. This information is contained in the variable loadings of the PCA, within the rotation value of the prcomp object.

We have already extracted this from our prcomp object in the previous exercise:

pc_loadings <- sample_pca$rotation

Similarly to the PC scores, this object is a matrix, which we can convert to a data.frame/tibble for plotting and data manipulation:

pc_loadings <- pc_loadings %>% 
  as_tibble(rownames = "gene")

# print the result
pc_loadings

## # A tibble: 6,011 x 37
##    gene       PC1      PC2      PC3      PC4      PC5      PC6      PC7      PC8
##    <chr>    <dbl>    <dbl>    <dbl>    <dbl>    <dbl>    <dbl>    <dbl>    <dbl>
##  1 SPAC  0.00653  0.0217  -0.0146   2.04e-2  0.00243 -0.00850  0.00546 -7.22e-3
##  2 SPAC  0.00915 -0.0134  -0.00984  2.24e-2 -0.00994  0.0142  -0.00219  4.34e-4
##  3 SPAC  0.0125  -0.0153   0.00109 -2.17e-2  0.00303 -0.00454 -0.0264   1.89e-2
##  4 SPNC -0.00461  0.00571  0.00790 -2.29e-2  0.00604  0.0204  -0.00352  1.15e-2
##  5 SPAC -0.00176 -0.00581 -0.0139  -2.42e-2  0.00252 -0.00346  0.0223  -9.61e-3
##  6 SPAC  0.0342  -0.0227  -0.00138 -1.52e-2  0.0112  -0.00609 -0.00245  2.42e-3
##  7 SPAC  0.0126   0.0223  -0.00249  8.72e-3  0.0388  -0.0166   0.00410 -1.82e-2
##  8 SPAC  0.0102   0.0182  -0.00752  1.84e-2  0.0636  -0.00837 -0.0220  -1.61e-2
##  9 SPNC  0.0221  -0.0357   0.0146  -1.93e-2  0.0104   0.00874 -0.00480 -1.01e-2
## 10 SPAC -0.0159  -0.0270  -0.0168   8.82e-4 -0.0249  -0.0288  -0.0236  -8.97e-4
## #  with 6,001 more rows, and 28 more variables: PC9 <dbl>, PC10 <dbl>,
## #   PC11 <dbl>, PC12 <dbl>, PC13 <dbl>, PC14 <dbl>, PC15 <dbl>, PC16 <dbl>,
## #   PC17 <dbl>, PC18 <dbl>, PC19 <dbl>, PC20 <dbl>, PC21 <dbl>, PC22 <dbl>,
## #   PC23 <dbl>, PC24 <dbl>, PC25 <dbl>, PC26 <dbl>, PC27 <dbl>, PC28 <dbl>,
## #   PC29 <dbl>, PC30 <dbl>, PC31 <dbl>, PC32 <dbl>, PC33 <dbl>, PC34 <dbl>,
## #   PC35 <dbl>, PC36 <dbl>
…
