Exploratory analysis of RNAseq count data
…
A name for the new column that will contain the old column names (the names_to column)

A name for the new column that will contain our expression counts (the values_to column)

Like so:

# "gather" the counts data
trans_cts_long <- trans_cts %>% 
  pivot_longer(cols = wt_0_r1:mut_180_r3, 
               names_to = "sample", 
               values_to = "cts")

trans_cts_long

## # A tibble: 216,396 x 3
##    gene       sample     cts
##    <chr>      <chr>    <dbl>
##  1 SPAC212.11 wt_0_r1   4.95
##  2 SPAC212.11 wt_0_r2   4.97
##  3 SPAC212.11 wt_0_r3   5.66
##  4 SPAC212.11 wt_15_r1  5.45
##  5 SPAC212.11 wt_15_r2  5.44
##  6 SPAC212.11 wt_15_r3  6.50
##  7 SPAC212.11 wt_30_r1  5.08
##  8 SPAC212.11 wt_30_r2  5.25
##  9 SPAC212.11 wt_30_r3  5.32
## 10 SPAC212.11 wt_60_r1  4.85
## #  with 216,386 more rows

If we wanted to do the reverse, we could use the pivot_wider() function:

trans_cts_long %>% 
  pivot_wider(names_from = "sample", values_from = "cts")

## # A tibble: 6,011 x 37
##    gene  wt_0_r1 wt_0_r2 wt_0_r3 wt_15_r1 wt_15_r2 wt_15_r3 wt_30_r1 wt_30_r2
##    <chr>   <dbl>   <dbl>   <dbl>    <dbl>    <dbl>    <dbl>    <dbl>    <dbl>
##  1 SPAC    4.95    4.97    5.66     5.45     5.44     6.50     5.08     5.25
##  2 SPAC    5.44    6.21    6.17     5.94     6.33     6.41     6.71     7.15
##  3 SPAC    5.75    5.06    5.54     5.68     5.18     5.10     5.82     6.31
##  4 SPNC    5.73    4.87    4.94     5.57     5.32     4.20     5.17     4.77
##  5 SPAC    7.05    6.84    6.79     6.87     6.09     6.19     6.91     6.66
##  6 SPAC    5.34    5.34    5.31     5.32     5.99     5.30     7.61     7.48
##  7 SPAC    6.50    6.23    6.70     7.03     6.92     7.53     6.44     6.68
##  8 SPAC    7.24    7.46    7.48     7.09     7.46     7.65     6.88     7.13
##  9 SPNC    5.96    5.69    5.94     5.92     5.87     4.84     7.38     7.30
## 10 SPAC    6.64    6.65    6.78     4.62     5.61     6.15     5.66     6.50
## #  with 6,001 more rows, and 28 more variables: wt_30_r3 <dbl>,
## #   wt_60_r1 <dbl>, wt_60_r2 <dbl>, wt_60_r3 <dbl>, wt_120_r1 <dbl>,
## #   wt_120_r2 <dbl>, wt_120_r3 <dbl>, wt_180_r1 <dbl>, wt_180_r2 <dbl>,
## #   wt_180_r3 <dbl>, mut_0_r1 <dbl>, mut_0_r2 <dbl>, mut_0_r3 <dbl>,
## #   mut_15_r1 <dbl>, mut_15_r2 <dbl>, mut_15_r3 <dbl>, mut_30_r1 <dbl>,
## #   mut_30_r2 <dbl>, mut_30_r3 <dbl>, mut_60_r1 <dbl>, mut_60_r2 <dbl>,
## #   mut_60_r3 <dbl>, mut_120_r1 <dbl>, mut_120_r2 <dbl>, mut_120_r3 <dbl>,
## #   mut_180_r1 <dbl>, mut_180_r2 <dbl>, mut_180_r3 <dbl>

Exercise:

Convert the raw_cts created above to a long format using the pivot_longer() function

Link to full exercise

Joining tables together

The next thing we want to do is to add information about each sample to our gene expression table.

sample_info

## # A tibble: 36 x 4
##    sample   strain minute replicate
##    <chr>    <chr>   <dbl> <chr>    
##  1 wt_0_r1  wt          0 r1       
##  2 wt_0_r2  wt          0 r2       
##  3 wt_0_r3  wt          0 r3       
##  4 wt_15_r1 wt         15 r1       
##  5 wt_15_r2 wt         15 r2       
##  6 wt_15_r3 wt         15 r3       
##  7 wt_30_r1 wt         30 r1       
##  8 wt_30_r2 wt         30 r2       
##  9 wt_30_r3 wt         30 r3       
## 10 wt_60_r1 wt         60 r1       
## #  with 26 more rows
…
Look at the Combine Data Sets section of the dplyr cheatsheet to understand them better.

In our case, we know that all samples in our counts table also occur in the sample_info table, so theres a few different kinds of joins that would work.

For safety, lets use full_join(), to ensure we retain all data from both tables:

trans_cts_long <- full_join(trans_cts_long, sample_info, by = "sample")

trans_cts_long

## # A tibble: 216,396 x 6
##    gene       sample     cts strain minute replicate
##    <chr>      <chr>    <dbl> <chr>   <dbl> <chr>    
##  1 SPAC212.11 wt_0_r1   4.95 wt          0 r1       
##  2 SPAC212.11 wt_0_r2   4.97 wt          0 r2       
##  3 SPAC212.11 wt_0_r3   5.66 wt          0 r3       
##  4 SPAC212.11 wt_15_r1  5.45 wt         15 r1       
##  5 SPAC212.11 wt_15_r2  5.44 wt         15 r2       
##  6 SPAC212.11 wt_15_r3  6.50 wt         15 r3       
##  7 SPAC212.11 wt_30_r1  5.08 wt         30 r1       
##  8 SPAC212.11 wt_30_r2  5.25 wt         30 r2       
##  9 SPAC212.11 wt_30_r3  5.32 wt         30 r3       
## 10 SPAC212.11 wt_60_r1  4.85 wt         60 r1       
## #  with 216,386 more rows
…
